{"ok":true,"files":[{"id":"F0268DBF4","timestamp":1394549359,"name":"silly_law_schools.json","title":"silly_law_schools.json","mimetype":"text\/plain","filetype":"javascript","pretty_type":"JavaScript\/JSON","user":"U024Y94AX","editable":true,"size":4810,"mode":"snippet","is_external":false,"external_type":"","is_public":true,"public_url_shared":false,"url":"https:\/\/slack-files.com\/files-pub\/T024XMM6F-F0268DBF4-4c691e\/silly_law_schools.json","url_download":"https:\/\/slack-files.com\/files-pub\/T024XMM6F-F0268DBF4-4c691e\/download\/silly_law_schools.json","url_private":"https:\/\/files.slack.com\/files-pri\/T024XMM6F-F0268DBF4\/silly_law_schools.json","url_private_download":"https:\/\/files.slack.com\/files-pri\/T024XMM6F-F0268DBF4\/download\/silly_law_schools.json","permalink":"https:\/\/noodle.slack.com\/files\/brianmonetti\/F0268DBF4\/silly_law_schools.json","permalink_public":"https:\/\/slack-files.com\/T024XMM6F-F0268DBF4-4c691e","edit_link":"https:\/\/noodle.slack.com\/files\/brianmonetti\/F0268DBF4\/silly_law_schools.json\/edit","preview":"\"response\": {\n    \"numFound\": 29,\n    \"start\": 0,\n    \"docs\": [\n      {\n        \"nice_key\": \"grexH\",\n        \"title\": \"Concordia Law School\",\n        \"city\": \"Boise\",\n        \"state\": \"ID\"\n      },","preview_highlight":"<div class=\"sssh-code\"><div class=\"sssh-line\"><pre><span class=\"sssh-string\">&quot;response&quot;<\/span><span>:<\/span> <span>&#123;<\/span><\/pre><\/div>\n<div class=\"sssh-line\"><pre>    <span class=\"sssh-string\">&quot;numFound&quot;<\/span><span>:<\/span> <span class=\"sssh-number\">29<\/span><span>,<\/span><\/pre><\/div>\n<div class=\"sssh-line\"><pre>    <span class=\"sssh-string\">&quot;start&quot;<\/span><span>:<\/span> <span class=\"sssh-number\">0<\/span><span>,<\/span><\/pre><\/div>\n<div class=\"sssh-line\"><pre>    <span class=\"sssh-string\">&quot;docs&quot;<\/span><span>:<\/span> <span>&#91;<\/span><\/pre><\/div>\n<div class=\"sssh-line\"><pre>      <span>&#123;<\/span><\/pre><\/div>\n<div class=\"sssh-line\"><pre>        <span class=\"sssh-string\">&quot;nice_key&quot;<\/span><span>:<\/span> <span class=\"sssh-string\">&quot;grexH&quot;<\/span><span>,<\/span><\/pre><\/div>\n<div class=\"sssh-line\"><pre>        <span class=\"sssh-string\">&quot;title&quot;<\/span><span>:<\/span> <span class=\"sssh-string\">&quot;Concordia Law School&quot;<\/span><span>,<\/span><\/pre><\/div>\n<div class=\"sssh-line\"><pre>        <span class=\"sssh-string\">&quot;city&quot;<\/span><span>:<\/span> <span class=\"sssh-string\">&quot;Boise&quot;<\/span><span>,<\/span><\/pre><\/div>\n<div class=\"sssh-line\"><pre>        <span class=\"sssh-string\">&quot;state&quot;<\/span><span>:<\/span> <span class=\"sssh-string\">&quot;ID&quot;<\/span><\/pre><\/div>\n<div class=\"sssh-line\"><pre>      <span>&#125;<\/span><span>,<\/span><\/pre><\/div>\n<\/div>","lines":180,"lines_more":170,"channels":["C024XP5MX"],"groups":[],"ims":[],"comments_count":0}],"paging":{"count":1,"total":267,"page":1,"pages":267}}