{
    "ok": true,
    "files": [
        {
            "id": "F0265J6QU",
            "timestamp": 1394457389,
            "name": "marketing__week_of_march_10th",
            "title": "Marketing: week of March 10th",
            "mimetype": "text\/plain",
            "filetype": "post",
            "pretty_type": null,
            "user": "U024Z1ML6",
            "editable": true,
            "size": 5229,
            "mode": "post",
            "is_external": false,
            "external_type": "",
            "is_public": true,
            "public_url_shared": false,
            "url": "https:\/\/slack-files.com\/files-pub\/T024XMM6F-F0265J6QU-5dd312\/marketing__week_of_march_10th",
            "url_download": "https:\/\/slack-files.com\/files-pub\/T024XMM6F-F0265J6QU-5dd312\/download\/marketing__week_of_march_10th",
            "url_private": "https:\/\/files.slack.com\/files-pri\/T024XMM6F-F0265J6QU\/marketing__week_of_march_10th",
            "url_private_download": "https:\/\/files.slack.com\/files-pri\/T024XMM6F-F0265J6QU\/download\/marketing__week_of_march_10th",
            "permalink": "https:\/\/noodle.slack.com\/files\/jeffherbst\/F0265J6QU\/marketing__week_of_march_10th",
            "permalink_public": "https:\/\/slack-files.com\/T024XMM6F-F0265J6QU-5dd312",
            "edit_link": "https:\/\/noodle.slack.com\/files\/jeffherbst\/F0265J6QU\/marketing__week_of_march_10th\/edit",
            "preview": "Advice\/Content\n1. finalize state of law school visual (Jill)\n2. finalize copy & scope of student debt visualization, send to oBiz (Jill\/Alister)\n3. deliver research on organizations behind grad school testing -- gre, gmat, lsat, mcat (Alister)\n4. mailchimp blast to K12 subscribers on Wednesday (Abby\/Jeff)\n\u2026",
            "channels": [
                "C0251KP3J"
            ],
            "groups": [

            ],
            "ims": [

            ],
            "comments_count": 0
        }
    ],
    "paging": {
        "count": 1,
        "total": 39,
        "page": 1,
        "pages": 39
    }
}